"Recommendation","Not preferred","Preferred"
"Be specific and unambiguous.","Try to keep the distance as small |br| as possible.","The distance should not exceed |br| 4 mm."
"Avoid non-quantifiable adjectives |br| or adverbs.","Turn a few times on the handle.","Turn the handle twice clockwise."
"Use no double negatives.","Do not turn off the machine without |br| exiting the program.","#. Exit the program.
#. Turn the machine off."
"Provide clear references.","The machine has six motors. They |br| are started with the white button.","The machine has six motors, |br| numbered 1 to 6. These six motors |br| can be started by pressing |br| the white buttons |br| [:kbd:`1` to :kbd:`6`] on control |br| panel :guilabel:`F`."
"Write notes as additional information, |br| not as instructions (procedure steps).","NOTE Wait about 15 s until the |br| gyro is stabilized.","NOTE The gyroscope is stabilized |br| after about 15 s."
